id	名称	资源Id	召唤价格（起始价格）- 金币	每买一次价格增加百分比 - 金币	召唤价格 - 钻石	本交通工具等级	赛道达到多少等级可解锁本交通工具	可适用的赛道Id	基础收益（跑一圈获得多少金币）	基础速度(多少秒跑完一圈)
0	我日你妈		100	0.1	10	1	1	0_0	101	5
1	bbb		101	0.1	11	2	3	0_0	200	5
2	ccc		102	0.1	12	3	3	0_0	300	5
3	ddd		103	0.1	13	4	4	0_0	400	5
4	eee		104	0.1	14	5	5	0_0	500	4
5	fff		105	0.1	15	6	6	0_0	600	4
6	ggg		106	0.1	16	7	7	0_0	700	4
7	hhh		107	0.1	17	8	8	0_0	800	4
8	iii		108	0.1	18	1	1	0_1	900	4
9	jjj		109	0.1	19	2	3	0_1	1000	4
10	kkk		110	0.1	20	3	3	0_1	1100	4
11	fflll		111	0.1	21	4	4	0_1	1200	4
12	mmm		112	0.1	22	5	5	0_1	1300	4
13	nnn		113	0.1	23	6	6	0_1	1400	4
14	ooo		114	0.1	24	7	7	0_1	1500	4
15	啊啊啊		115	0.1	25	1	1	1_0	1501	3
16	不不不		116	0.1	26	2	3	1_0	1502	3
17	擦擦擦		117	0.1	27	3	3	1_0	1503	3
18	对对对		118	0.1	28	4	4	1_0	1504	3
19	嗯嗯嗯		119	0.1	29	5	5	1_0	1505	3
20	发发发		120	0.1	30	6	6	1_0	1506	3
21	滚滚滚		121	0.1	31	7	7	1_0	1507	3
